<svg xmlns="http://www.w3.org/2000/svg" width="52.871" height="43.868" viewBox="0 0 52.871 43.868">
  <path id="Safety_standards_icon" data-name="Safety standards_icon" d="M97.524,221.028A37.316,37.316,0,0,1,81.48,217.74a27.987,27.987,0,0,1-8.12-5.419,7.884,7.884,0,0,1-2.493-3.928,4.216,4.216,0,0,1,2.667-5.024c.4-.154.425-.385.436-.73a24.419,24.419,0,0,1,4.19-13.378,22.38,22.38,0,0,1,13.319-9.053,1.3,1.3,0,0,0,1.008-.8,3.508,3.508,0,0,1,3.1-2.2,20.143,20.143,0,0,1,3.562.069,3.359,3.359,0,0,1,2.79,2.151,1.245,1.245,0,0,0,.96.769,22.446,22.446,0,0,1,17.059,18.078c.276,1.481.326,3,.507,4.5a.727.727,0,0,0,.329.53c2.923.93,3.439,4.334,2.217,6.514a12.776,12.776,0,0,1-2.971,3.408,32.193,32.193,0,0,1-13.295,6.666A36.541,36.541,0,0,1,97.524,221.028ZM81.649,188.783a3.727,3.727,0,0,1-.2.349,21.553,21.553,0,0,0-4.977,14.144.922.922,0,0,0,.454.673,30.813,30.813,0,0,0,3.231,1.348A63.461,63.461,0,0,0,91.3,207.735a39.9,39.9,0,0,0,10.2.209,66.727,66.727,0,0,0,11.664-2.319c1.479-.449,2.9-1.1,4.34-1.663a.7.7,0,0,0,.472-.81c-.057-.663-.06-1.331-.111-1.994a21.231,21.231,0,0,0-3.868-10.677c-.373-.536-.792-1.041-1.256-1.646-.176.332-.292.537-.4.748q-1.1,2.259-2.2,4.52c-.035.073-.072.145-.109.216a1.248,1.248,0,1,1-2.225-1.079q1.416-2.879,2.859-5.745a.576.576,0,0,0-.19-.854,21.472,21.472,0,0,0-5.814-3.318c-.724-.275-1.477-.477-2.3-.739-.026.378-.058.631-.059.885-.005,2.668.019,5.336-.014,8a3.731,3.731,0,0,1-3.779,3.694c-.788,0-1.58-.047-2.363.011a3.87,3.87,0,0,1-4.057-4.061c.075-2.524.018-5.052.013-7.579,0-.274-.034-.549-.059-.921A20.808,20.808,0,0,0,83.568,187c.123.26.222.478.329.693.888,1.789,1.79,3.572,2.656,5.372a2.189,2.189,0,0,1,.256,1.143,1.09,1.09,0,0,1-1.031.955,1.185,1.185,0,0,1-1.286-.7q-1.16-2.33-2.314-4.664C82.037,189.507,81.885,189.231,81.649,188.783Zm15.516,29.751.024.158c2.3-.261,4.621-.4,6.895-.808a29.719,29.719,0,0,0,14.222-6.424,17.656,17.656,0,0,0,2.438-2.745,2.209,2.209,0,0,0,.253-2.088c-.218-.681-1.155-1.2-1.661-.885a25.682,25.682,0,0,1-7.255,2.775,60.222,60.222,0,0,1-9.916,1.815,50.76,50.76,0,0,1-6.58.306,61.387,61.387,0,0,1-12.348-1.9,28.115,28.115,0,0,1-8.131-3.014,1.06,1.06,0,0,0-.788-.038,1.491,1.491,0,0,0-1.034,1.42,3.655,3.655,0,0,0,1.152,2.767,20.2,20.2,0,0,0,5.256,4.146A34.534,34.534,0,0,0,97.165,218.534Zm2.7-32.311c0-1.634.006-3.269,0-4.9-.006-1.151-.531-1.671-1.662-1.674q-.968,0-1.937,0c-1.216,0-1.718.5-1.721,1.738-.006,1.917,0,3.834,0,5.751,0,1.312-.01,2.623,0,3.935.01,1.134.51,1.619,1.629,1.619q1,0,2,0c1.2,0,1.685-.477,1.692-1.682C99.873,189.412,99.867,187.818,99.867,186.223Z" transform="translate(-70.754 -177.162)" fill="#fff"/>
</svg>
