<?xml version="1.0" encoding="utf-8"?>
<!-- Generator: Adobe Illustrator 15.0.0, SVG Export Plug-In . SVG Version: 6.00 Build 0)  -->
<!DOCTYPE svg PUBLIC "-//W3C//DTD SVG 1.1//EN" "http://www.w3.org/Graphics/SVG/1.1/DTD/svg11.dtd">
<svg version="1.1" id="Layer_1" xmlns="http://www.w3.org/2000/svg" xmlns:xlink="http://www.w3.org/1999/xlink" x="0px" y="0px"
	 width="20px" height="20px" viewBox="8.668 8.691 20 20" enable-background="new 8.668 8.691 20 20" xml:space="preserve">
<path id="Phone_icon" fill="#FFFFFF" d="M27.424,15.887c-1.429-4.45-5.965-7.123-10.549-6.216c-2.055,0.376-3.909,1.471-5.231,3.088
	c-1.852,2.14-2.587,5.027-1.984,7.792c0.336,1.716,1.173,3.293,2.404,4.533c1.486,1.547,3.473,2.52,5.607,2.742
	c0.169,0.017,0.335,0.035,0.501,0.049l0.944,0.026l0.125-0.021c0.027-0.007,0.055-0.012,0.082-0.014l0.367-0.036
	c0.254-0.023,0.507-0.046,0.755-0.087c0.991-0.133,1.932-0.521,2.728-1.127c0.526-0.376,0.922-0.905,1.133-1.516
	c0.212-0.519,0.119-1.11-0.238-1.539c0.553-0.64,0.483-1.607-0.156-2.16c-0.029-0.025-0.06-0.05-0.091-0.072
	c-0.486-0.385-0.977-0.768-1.471-1.148c-0.576-0.463-1.395-0.464-1.971-0.003l-0.123,0.099c-0.058,0.047-0.119,0.099-0.181,0.141
	c-0.108,0.104-0.282,0.102-0.387-0.008c-0.005-0.004-0.009-0.009-0.013-0.013c-0.906-0.9-1.809-1.804-2.707-2.71
	c-0.118-0.099-0.133-0.275-0.034-0.393c0.004-0.005,0.009-0.01,0.014-0.015c0.055-0.073,0.111-0.147,0.172-0.219l0.055-0.073
	c0.478-0.566,0.481-1.393,0.009-1.964c-0.382-0.501-0.767-0.997-1.16-1.489c-0.272-0.354-0.682-0.575-1.127-0.609
	c-0.447-0.018-0.882,0.151-1.201,0.466l-0.233,0.227c-0.251,0.247-0.504,0.487-0.729,0.752c-0.196,0.23-0.347,0.497-0.443,0.784
	c-0.113,0.407-0.114,0.837-0.003,1.245c0.2,0.815,0.561,1.582,1.061,2.255c1.368,1.923,3.026,3.622,4.916,5.036
	c0.7,0.557,1.493,0.984,2.343,1.265c0.708,0.216,1.725,0.395,2.539-0.44l0.002,0.003c-0.073,0.236-0.178,0.461-0.309,0.671
	c-0.299,0.385-0.695,0.684-1.147,0.865c-2.424,0.972-5.169,0.701-7.355-0.726c-2.698-1.876-3.884-4.468-3.529-7.702
	c0.188-1.702,0.962-3.285,2.188-4.479c2.628-2.699,6.792-3.174,9.96-1.137c3.124,1.991,4.443,5.886,3.174,9.365
	c-0.144,0.365-0.308,0.722-0.492,1.066l-0.182,0.358c-0.106,0.196-0.116,0.431-0.025,0.636c0.085,0.169,0.244,0.288,0.431,0.323
	c0.29,0.062,0.584-0.086,0.708-0.355c1.346-2.269,1.657-5.005,0.856-7.518H27.424z M13.48,15.881l-0.023-0.143
	c0-0.217,0.089-0.425,0.246-0.574c0.201-0.184,0.391-0.379,0.583-0.571l0.268-0.271c0.064-0.064,0.184-0.152,0.271-0.134
	c0.097,0.018,0.183,0.076,0.236,0.16c0.373,0.475,0.743,0.95,1.11,1.424c0.126,0.107,0.141,0.295,0.034,0.421
	c-0.01,0.012-0.022,0.023-0.034,0.034l-0.098,0.125c-0.064,0.076-0.125,0.154-0.181,0.236c-0.427,0.592-0.37,1.406,0.137,1.932
	c0.927,0.947,1.863,1.885,2.808,2.815c0.544,0.495,1.359,0.544,1.958,0.119c0.076-0.052,0.147-0.113,0.222-0.172l0.138-0.105
	c0.181-0.137,0.276-0.107,0.394-0.012c0.507,0.388,1.011,0.775,1.51,1.172c0.067,0.049,0.11,0.124,0.119,0.207
	c0.001,0.083-0.032,0.163-0.094,0.222c-0.317,0.329-0.64,0.655-0.967,0.964c-0.148,0.14-0.355,0.169-0.705,0.12
	c-0.65-0.129-1.268-0.392-1.813-0.77c-0.907-0.594-1.75-1.28-2.517-2.049c-0.947-0.881-1.806-1.853-2.567-2.899
	c-0.441-0.577-0.774-1.23-0.982-1.926c-0.023-0.107-0.041-0.215-0.052-0.324L13.48,15.881z"/>
</svg>
