<svg xmlns="http://www.w3.org/2000/svg" width="16.491" height="16.513" viewBox="0 0 16.491 16.513">
  <path id="Call_icon" d="M161.366,62.655a8.252,8.252,0,0,0-9.457-5.572,7.894,7.894,0,0,0-4.689,2.769,8.053,8.053,0,0,0-1.779,6.986A7.932,7.932,0,0,0,147.6,70.9a8.145,8.145,0,0,0,5.026,2.458c.152.016.3.031.449.044l.846.024.112-.018a.613.613,0,0,1,.073-.013l.329-.031c.227-.021.455-.042.677-.078a5.172,5.172,0,0,0,2.445-1.011,2.789,2.789,0,0,0,1.016-1.358,1.355,1.355,0,0,0-.214-1.379,1.373,1.373,0,0,0-.219-2q-.654-.517-1.319-1.029a1.411,1.411,0,0,0-1.766,0l-.11.086c-.052.042-.107.086-.162.125a.246.246,0,0,1-.358-.018Q153.2,65.488,152,64.27a.25.25,0,0,1-.018-.366c.05-.065.1-.131.154-.2l.05-.065a1.373,1.373,0,0,0,.008-1.761c-.342-.449-.687-.893-1.04-1.335A1.41,1.41,0,0,0,150.135,60a1.448,1.448,0,0,0-1.076.418l-.209.2c-.225.219-.452.436-.653.674a2.14,2.14,0,0,0-.4.7,2.093,2.093,0,0,0,0,1.116,5.641,5.641,0,0,0,.951,2.022,20.4,20.4,0,0,0,4.407,4.514,6.783,6.783,0,0,0,2.1,1.134,2.108,2.108,0,0,0,2.275-.394l0,0a2.6,2.6,0,0,1-.277.6,2.46,2.46,0,0,1-1.029.776,7.178,7.178,0,0,1-6.594-.651,6.979,6.979,0,0,1-3.164-6.9,6.621,6.621,0,0,1,1.962-4.015,7.1,7.1,0,0,1,8.93-1.019,7.079,7.079,0,0,1,2.845,8.4,8.887,8.887,0,0,1-.441.956l-.162.321a.646.646,0,0,0-.024.57.544.544,0,0,0,.387.29.568.568,0,0,0,.635-.319,8.282,8.282,0,0,0,.768-6.74Zm-12.5-.005-.021-.128a.709.709,0,0,1,.219-.515c.18-.165.35-.34.522-.512l.24-.243c.057-.057.165-.136.243-.12a.32.32,0,0,1,.212.144q.5.639,1,1.278a.268.268,0,0,1,0,.408l-.086.112a2.514,2.514,0,0,0-.162.212,1.354,1.354,0,0,0,.123,1.732q1.246,1.274,2.518,2.524a1.4,1.4,0,0,0,1.756.107c.068-.047.133-.1.2-.154l.123-.094c.162-.123.248-.1.355-.01.455.347.907.695,1.353,1.05a.266.266,0,0,1,.107.185.269.269,0,0,1-.084.2c-.285.3-.572.588-.867.865-.133.125-.319.152-.632.107a4.342,4.342,0,0,1-1.625-.69,14.1,14.1,0,0,1-2.257-1.837,18.1,18.1,0,0,1-2.3-2.6,5.382,5.382,0,0,1-.88-1.727A2.864,2.864,0,0,1,148.866,62.65Z" transform="translate(-145.266 -56.916)" fill="#ff8f39"/>
</svg>
