<svg xmlns="http://www.w3.org/2000/svg" width="9.125" height="14.822" viewBox="0 0 9.125 14.822">
  <path id="Left_arrow" d="M7914.942,2395.874l-6.713,6.19,6.713,5.808" transform="translate(-7907.23 -2394.461)" fill="none" stroke="#cecece" stroke-linecap="round" stroke-linejoin="round" stroke-width="2"/>
</svg>
