<svg id="Location_icon" xmlns="http://www.w3.org/2000/svg" width="15.127" height="20.635" viewBox="0 0 15.127 20.635">
  <path id="Path_80" data-name="Path 80" d="M159.726,85.611a7.493,7.493,0,0,0-13.439,1.677,6.348,6.348,0,0,0,.065,4.838c.387.891.792,1.776,1.264,2.623a47.181,47.181,0,0,0,4.42,6.354c.065.081.128.165.217.28H152c-.9,0-1.79,0-2.686,0a.688.688,0,1,0-.008,1.374q4.1,0,8.2,0a.688.688,0,1,0-.005-1.374c-.431,0-.86,0-1.291,0h-1.648l.165-.212c.737-.969,1.492-1.923,2.2-2.908a30.232,30.232,0,0,0,3.281-5.5,7.383,7.383,0,0,0,.745-2.738A7.639,7.639,0,0,0,159.726,85.611Zm-.75,6.766a24.9,24.9,0,0,1-2.814,4.755c-.815,1.123-1.685,2.2-2.534,3.3-.06.078-.128.152-.222.261-.4-.5-.8-.974-1.176-1.458a39.674,39.674,0,0,1-3.775-5.6,11.125,11.125,0,0,1-1.092-2.673,5.652,5.652,0,0,1,.46-3.762,6.071,6.071,0,0,1,10.756-.784,6.214,6.214,0,0,1,1.016,3.433A6.091,6.091,0,0,1,158.976,92.378Z" transform="translate(-145.841 -82.124)" fill="#fff"/>
  <path id="Path_81" data-name="Path 81" d="M150.874,83.706a3.438,3.438,0,1,0,3.425,3.435A3.44,3.44,0,0,0,150.874,83.706Zm0,5.5a2.063,2.063,0,1,1,2.048-2.059A2.067,2.067,0,0,1,150.877,89.208Z" transform="translate(-143.29 -79.574)" fill="#fff"/>
</svg>
