<svg id="Ongoing_project_icon" xmlns="http://www.w3.org/2000/svg" width="52.209" height="52.201" viewBox="0 0 52.209 52.201">
  <path id="Path_95" data-name="Path 95" d="M541.608,601.713c-.129.7-.229,1.4-.392,2.09a14.338,14.338,0,0,1-14.371,10.949,14.531,14.531,0,0,1-13.292-11.612A14.128,14.128,0,0,1,541.2,597.33c.166.706.277,1.426.413,2.139ZM527.43,612.591a11.964,11.964,0,1,0-11.923-12.2A11.8,11.8,0,0,0,527.43,612.591Z" transform="translate(-489.399 -562.563)" fill="#fff"/>
  <path id="Path_96" data-name="Path 96" d="M492.289,532c.174.05.346.106.522.149a4.687,4.687,0,0,1,3.5,4.242c.321,0,.653,0,.985,0a3.262,3.262,0,1,1,.007,6.522q-5.351.011-10.7,0a3.262,3.262,0,1,1-.094-6.521c.338-.011.676,0,1.033,0a8.455,8.455,0,0,1,.212-1.049,4.564,4.564,0,0,1,3.639-3.248,2.243,2.243,0,0,0,.284-.094Zm-.349,8.753c1.8,0,3.6.007,5.4,0,.784,0,1.118-.333,1.133-1.06.017-.75-.321-1.1-1.125-1.117-.7-.017-1.393.008-2.089-.011a1.062,1.062,0,0,1-1.137-1.155c-.009-.39.01-.781-.009-1.171a1.952,1.952,0,0,0-1.907-1.992c-1.432-.058-2.227.517-2.4,1.773a9.8,9.8,0,0,0-.042,1.219c-.012.955-.374,1.323-1.323,1.334-.713.008-1.428-.014-2.138.03-.6.037-.832.322-.845.925-.021.94.241,1.223,1.183,1.227C488.408,540.758,490.174,540.753,491.94,540.753Z" transform="translate(-472.507 -532)" fill="#fff"/>
  <path id="Path_97" data-name="Path 97" d="M460.98,549.015v3.907q0,18.4-.011,36.8c0,.513.122.65.646.649q10.936-.028,21.871-.008a2.238,2.238,0,0,1,.7.079,1.045,1.045,0,0,1,.655,1.144,1.067,1.067,0,0,1-.938.931,3.785,3.785,0,0,1-.458.01h-23.2c-1.086,0-1.435-.348-1.435-1.429V548.283c0-1.094.332-1.43,1.429-1.432q2.982,0,5.965,0a1.059,1.059,0,0,1,1.113.912,1.036,1.036,0,0,1-.637,1.151,1.859,1.859,0,0,1-.646.093c-1.479.007-2.957,0-4.436,0Z" transform="translate(-458.814 -540.33)" fill="#fff"/>
  <path id="Path_98" data-name="Path 98" d="M536.791,554.458q0,3.183,0,6.365a1.094,1.094,0,0,1-1.063,1.231c-.676.013-1.088-.447-1.1-1.235,0-.153,0-.306,0-.458,0-3.581-.008-7.163.013-10.744,0-.5-.14-.622-.626-.612-1.578.032-3.158.014-4.736.009-.8,0-1.259-.4-1.259-1.076s.469-1.084,1.254-1.085q3.132,0,6.264,0c.867,0,1.262.408,1.262,1.291q0,3.158,0,6.314Z" transform="translate(-497.634 -540.332)" fill="#fff"/>
  <path id="Path_99" data-name="Path 99" d="M473.368,624.484c0-.678-.01-1.357,0-2.035a1.068,1.068,0,0,1,1.165-1.181c1.391-.018,2.782-.016,4.173,0a1.163,1.163,0,0,1,1.215,1.272q-.008,1.958-.027,3.916c-.009.947-.387,1.329-1.332,1.334q-1.985.01-3.969,0a1.085,1.085,0,0,1-1.227-1.217c0-.017,0-.034,0-.051Zm2.2,1.1h2.111v-2.106h-2.111Z" transform="translate(-466.977 -582.072)" fill="#fff"/>
  <path id="Path_100" data-name="Path 100" d="M506.042,578.819c-2.1,0-4.21,0-6.315,0-.732,0-1.178-.347-1.255-.931a1.084,1.084,0,0,1,1.183-1.254c1.493-.012,2.987,0,4.481-.005q4.073,0,8.148,0a1.154,1.154,0,0,1,1.288.907,1.113,1.113,0,0,1-1.216,1.282c-1.443.013-2.886,0-4.328,0Z" transform="translate(-481.056 -557.034)" fill="#fff"/>
  <path id="Path_101" data-name="Path 101" d="M476.545,573.084c.785-1.012,1.533-1.974,2.278-2.936.51-.658,1.014-1.32,1.528-1.973a1.093,1.093,0,1,1,1.734,1.311q-2.252,2.926-4.522,5.839a1.087,1.087,0,0,1-1.849.083q-.865-.934-1.711-1.887a1.108,1.108,0,0,1,0-1.629,1.092,1.092,0,0,1,1.584.147C475.9,572.358,476.187,572.69,476.545,573.084Z" transform="translate(-467.137 -551.991)" fill="#fff"/>
  <path id="Path_102" data-name="Path 102" d="M476.506,597.9c1.32-1.652,2.6-3.253,3.881-4.86a1,1,0,0,1,1.148-.453,1.379,1.379,0,0,1,.772.7,1.267,1.267,0,0,1-.176,1.024c-1.547,2-3.132,3.973-4.721,5.942a1.051,1.051,0,0,1-1.683.058c-.634-.685-1.248-1.39-1.849-2.1a1.084,1.084,0,0,1,.083-1.515,1.1,1.1,0,0,1,1.553.094c.165.171.316.355.474.533Z" transform="translate(-467.113 -565.961)" fill="#fff"/>
  <path id="Path_103" data-name="Path 103" d="M500.425,603.577c-.39,0-.781.017-1.17,0a1.075,1.075,0,0,1-.005-2.146c.813-.028,1.629-.029,2.442,0a1.074,1.074,0,0,1,0,2.138c-.422.028-.848.005-1.271.005Z" transform="translate(-480.938 -570.937)" fill="#fff"/>
  <path id="Path_104" data-name="Path 104" d="M500.616,626.22c.356,0,.713-.018,1.068,0a1.075,1.075,0,0,1,.07,2.14,21.769,21.769,0,0,1-2.339,0,1.076,1.076,0,0,1,.031-2.143c.2-.017.407-.009.61-.01.187,0,.373,0,.559,0Z" transform="translate(-481.053 -584.854)" fill="#fff"/>
  <path id="Path_105" data-name="Path 105" d="M545.239,605.109c1.061,0,2.06.033,3.056-.01a1.132,1.132,0,0,1,1.295,1.114c-.008.651-.517,1.064-1.292,1.065q-1.986,0-3.972,0a1.092,1.092,0,0,1-1.254-1.243q-.007-4.2,0-8.4a1.093,1.093,0,1,1,2.165.015q.006,3.437,0,6.874Z" transform="translate(-506.081 -568.127)" fill="#fff"/>
</svg>
